{
  "project_info": {
    "project_number": "342588834279",
    "firebase_url": "https://foodonate07.firebaseio.com",
    "project_id": "foodonate07",
    "storage_bucket": "foodonate07.appspot.com"
  },
  "client": [
    {
      "client_info": {
        "mobilesdk_app_id": "1:342588834279:android:6834da006a57b679",
        "android_client_info": {
          "package_name": "foodonate.ayushi.com.foodonate"
        }
      },
      "oauth_client": [
        {
          "client_id": "342588834279-9oa0ag6po6r0pl3s8jli4mkqnjuh09n4.apps.googleusercontent.com",
          "client_type": 3
        }
      ],
      "api_key": [
        {
          "current_key": "AIzaSyAVj4SlRR28nU9csWy0hW7M9azUqPXZjGw"
        }
      ],
      "services": {
        "analytics_service": {
          "status": 1
        },
        "appinvite_service": {
          "status": 1,
          "other_platform_oauth_client": []
        },
        "ads_service": {
          "status": 2
        }
      }
    }
  ],
  "configuration_version": "1"
}